Example 02: More data manipulations • FishStomachs
…
# Data for grouping of prey items based on the NODC which provide an easy grouping.  
read_csv(file.path(system.file( package = "FishStomachs"),"extdata","consum_nodc.csv"))
#> Rows: 39 Columns: 3
#> ── Column specification ────────────────────────────────────────────────────────
#> Delimiter: ","
#> chr (1): species_group
#> dbl (2): First, Last
#> 
#> ℹ Use `spec()` to retrieve the full column specification for this data.
#> ℹ Specify the column types or set `show_col_types = FALSE` to quiet this message.
#> # A tibble: 39 × 3
#>    species_group          First       Last
#>    <chr>                  <dbl>      <dbl>
#>  1 Other              400000000 4700000000
#>  2 Annelida          5000000000 5001700000
#>  3 Other Inv.        5001710000 5699999999
#>  4 Cephalopoda       5700000000 5799999999
#>  5 Other Inv.        6000000000 6099999999
#>  6 Other Crustaceans 6100000000 6173999999
#>  7 Euphausiacea      6174000000 6174999999
#>  8 Other Crustaceans 6175000000 6178999999
#>  9 Caridea           6179000000 6179999999
#> 10 Astacidea         6180000000 6181999999
#> # … with 29 more rows
…
# Ambient temperature by ICES rectangel and quarter
read_csv(file.path(system.file( package = "FishStomachs"),"extdata","temperature.csv"))
#> Rows: 860 Columns: 3
#> ── Column specification ────────────────────────────────────────────────────────
#> Delimiter: ","
#> chr (1): rectangle
#> dbl (2): quarter, Temp
#> 
#> ℹ Use `spec()` to retrieve the full column specification for this data.
#> ℹ Specify the column types or set `show_col_types = FALSE` to quiet this message.
#> # A tibble: 860 × 3
#>    rectangle quarter  Temp
#>    <chr>       <dbl> <dbl>
#>  1 31F1            1  6.05
#>  2 31F2            1  6.72
#>  3 31F3            1  6.12
#>  4 32F1            1  6.5 
#>  5 32F2            1  6.37
#>  6 32F3            1  6.21
#>  7 33F1            1  5.71
#>  8 33F2            1  5.91
#>  9 33F3            1  6.2 
#> 10 33F4            1  5.46
#> # … with 850 more rows

# Data on energy contents and armament etc
read_csv(file.path(system.file( package = "FishStomachs"),"extdata","energy_density_and_armament.csv"))
#> Rows: 216 Columns: 6
#> ── Column specification ────────────────────────────────────────────────────────
#> Delimiter: ","
#> chr (1): species_group
#> dbl (5): quarter, lower, upper, E, Armer
#> 
#> ℹ Use `spec()` to retrieve the full column specification for this data.
#> ℹ Specify the column types or set `show_col_types = FALSE` to quiet this message.
#> # A tibble: 216 × 6
#>    species_group quarter lower upper     E Armer
#>    <chr>           <dbl> <dbl> <dbl> <dbl> <dbl>
#>  1 Gadus morhua        1    10   120   3.6     1
#>  2 Gadus morhua        1   150   250   3.8     1
#>  3 Gadus morhua        1   300   500   4       1
#>  4 Gadus morhua        2    10   120   3.9     1
#>  5 Gadus morhua        2   150   500   4.1     1
#>  6 Gadus morhua        3    10    80   3.9     1
#>  7 Gadus morhua        3   100   150   4.1     1
#>  8 Gadus morhua        3   200   500   4.4     1
#>  9 Gadus morhua        3    10    80   3.9     1
#> 10 Gadus morhua        3   100   150   4.1     1
#> # … with 206 more rows

And here is the call to the function and its results for the detailed
dataset.

s<-bias_correct_energy_etc(s,hour_multiplier=2190,
         nodc_group_file=file.path(system.file( package = "FishStomachs"),"extdata","consum_nodc.csv"),
              param_file=file.path(system.file( package = "FishStomachs"),"extdata","parameters.csv"),
        temperature_file=file.path(system.file( package = "FishStomachs"),"extdata","temperature.csv"),
             energy_file=file.path(system.file( package = "FishStomachs"),"extdata","energy_density_and_armament.csv")
      )
#> Energy and armament data were not found for the data shown below: 
#> # A tibble: 192 × 24
#>    sample_id fish_id prey_…¹ digest prey_l prey_ll prey_lu prey_…² prey_n prey_w
#>    <fct>     <fct>   <fct>    <int>  <dbl>   <int>   <int> <fct>    <int>  <dbl>
#>  1 Gadus mo… 232     Unknown      9   9999    9999    9999 r            0   0   
#>  2 Gadus mo… 333     Unknown      9   9999    9999    9999 r            0   0   
#>  3 Gadus mo… 424     Unknown      9   9999    9999    9999 r            0   0   
#>  4 Gadus mo… 54      Unknown      9   9999    9999    9999 r            0   0   
#>  5 Gadus mo… 55      Unknown      9   9999    9999    9999 r            0   0   
#>  6 Gadus mo… 889     Pleuro…      2   9999     150     200 r            1   5.54
#>  7 Gadus mo… 1027    Unknown      9   9999    9999    9999 r            0   0   
#>  8 Gadus mo… 1413    Unknown      9   9999    9999    9999 r            0   0   
#>  9 Gadus mo… 1563    Unknown      9   9999    9999    9999 r            0   0   
#> 10 Gadus mo… 3210    Unknown      9   9999    9999    9999 r            0   0   
#> # … with 182 more rows, 14 more variables: prey_nodc <dbl>, pred_l <int>,
#> #   n_tot <int>, n_food <int>, delta <dbl>, rho <dbl>, lambda <dbl>, xi <dbl>,
#> #   alfa <dbl>, k <dbl>, Temp <dbl>, species_group <chr>, E <dbl>, Armer <dbl>,
#> #   and abbreviated variable names ¹​prey_name, ²​prey_w_meth
…
First the size classes are made from specifications, which in this
case are from an input CSV file within the FishStomachs.

head(read.csv(file.path(system.file('extdata', package = 'FishStomachs'),'length_classes_config.csv')))
#>     l Species   y1   y2 q1 q2
#> 1  50     ALL 1981 1981  1  4
#> 2  70     ALL 1981 1981  1  4
#> 3 100     ALL 1981 1981  1  4
#> 4 150     ALL 1981 1981  1  4
#> 5 200     ALL 1981 1981  1  4
#> 6 250     ALL 1981 1981  1  4
ll<-make_length_classess(inp_dir=system.file('extdata', package = 'FishStomachs'),inp_file='length_classes_config.csv')
ll
#> # A tibble: 2,136 × 7
#>    Species  year quarter    l1    l2    no group    
#>    <chr>   <int>   <int> <int> <int> <int> <chr>    
#>  1 ALL      1981       1    50    69     1 0050-0069
#>  2 ALL      1981       1    70    99     2 0070-0099
#>  3 ALL      1981       1   100   149     3 0100-0149
#>  4 ALL      1981       1   150   199     4 0150-0199
#>  5 ALL      1981       1   200   249     5 0200-0249
#>  6 ALL      1981       1   250   299     6 0250-0299
#>  7 ALL      1981       1   300   399     7 0300-0399
#>  8 ALL      1981       1   400   499     8 0400-0499
#>  9 ALL      1981       1   500   699     9 0500-0699
#> 10 ALL      1981       1   700   999    10 0700-0999
#> # … with 2,126 more rows
…
The specification file includes lower size range for a given size
class, together with the span of years, quarters and species this should
be applied to. The Species variable is in this case “All” which includes
all species, however it could also include individual species names,
which makes it possible to assign species specific size classes.
Function make_length_classess transforms the specifications into size
classes by individual year and quarters.

s<-put_size_class_on_predator(s,len_classes=ll) # add variables pred_size_class and pred_size.
#> The same length classes wil be applied for all predators
s<-put_size_class_on_prey(s,len_classes=ll,too_small_to_other = FALSE)     # add variables prey_size_class and prey_size.
#> The same length classes wil be applied for all preys.
#> [1] "Size classes were not found for  2486  records"
#> # A tibble: 2,486 × 14
#>    sample_id fish_id prey_…¹ digest prey_l prey_ll prey_lu prey_…² prey_n prey_w
#>    <fct>     <fct>   <chr>    <int>  <dbl>   <int>   <int> <fct>    <int>  <dbl>
#>  1 Gadus mo… 109     Buglos…      1   9999      35      40 r            1 5.81e2
#>  2 Gadus mo… 116     Pseudo…      1   9999      12      15 r            1 1.50e2
#>  3 Gadus mo… 116     Gammar…      1   9999      12      15 r            1 1.00e2
#>  4 Gadus mo… 116     Crango…      1   9999      25      30 r            1 3.90e2
#>  5 Gadus mo… 131     Crango…      1   9999      25      30 r            1 9.44e2
#>  6 Gadus mo… 15      Pomato…      1   9999      40      50 r            1 3.25e2
#>  7 Gadus mo… 16      Mysidae      1   9999      12      15 r            1 8.50e0
#>  8 Gadus mo… 16      Gammar…      1   9999      10      12 r            2 1.70e1
#>  9 Gadus mo… 16      Crango…      1   9999      30      35 r            2 1.55e2
#> 10 Gadus mo… 164     Crango…      1   9999      40      50 r            1 1.69e3
#> # … with 2,476 more rows, 4 more variables: prey_nodc <dbl>, year <dbl>,
#> #   quarter <int>, prey_l_mean <int>, and abbreviated variable names
#> #   ¹​prey_name, ²​prey_w_meth
…
