Example 03: Estimate population diet • FishStomachs
…
# to show the contents of stratification file as created above (with write_CSV=TRUE)
read_csv(file.path(system.file( package = "FishStomachs"),"extdata","weighting_total.csv"),show_col_types=FALSE)
#> # A tibble: 239 × 5
#>    pred_name    stratum_time pred_size stratum_area w_fac_area
#>    <chr>        <chr>        <chr>     <chr>             <dbl>
#>  1 Gadus morhua 1991-Q1      0200-0249 R-7                   1
#>  2 Gadus morhua 1991-Q1      0200-0249 R-6                   1
#>  3 Gadus morhua 1991-Q1      0250-0299 R-4                   1
#>  4 Gadus morhua 1991-Q1      0250-0299 R-6                   1
#>  5 Gadus morhua 1991-Q1      0100-0149 R-7                   1
#>  6 Gadus morhua 1991-Q1      0300-0399 R-4                   1
#>  7 Gadus morhua 1991-Q1      0300-0399 R-6                   1
#>  8 Gadus morhua 1991-Q1      0100-0149 R-6                   1
#>  9 Gadus morhua 1991-Q1      0300-0399 R-7                   1
#> 10 Gadus morhua 1991-Q1      0300-0399 R-2                   1
#> # … with 229 more rows
…
