Example 04: Population diet • FishStomachs
…
load(file=file.path(system.file( package = "FishStomachs"),"extdata","ex03d.Rdata"))
d
#> Object of class 'STOMdiet'
#> ===========================
#> Number stomachs: 9660 
#> Predators: Gadus morhua 
#> Number of prey names: 8 
#> Prey names:Ammodytidae; Clupea harengus; Gadus morhua; Melanogrammus aeglefinus; 
#>     Merlangius merlangus; Sprattus sprattus; Trisopterus esmarkii; other; 
#> Temporal strata: 1991-Q1;  1991-Q2;  1991-Q3;  1991-Q4;

d[['PRED']]  # predator related information
#> # A tibble: 36 × 9
#>    stratum_area stratum_time pred_…¹ pred_…² pred_…³ n_tot n_sam…⁴ pred_…⁵ key  
#>    <fct>        <fct>        <fct>   <fct>     <int> <int>   <int>   <dbl> <fct>
#>  1 all          1991-Q1      Gadus … 0100-0…       3    42      18    135  all_…
#>  2 all          1991-Q1      Gadus … 0150-0…       4   117      51    175  all_…
#>  3 all          1991-Q1      Gadus … 0200-0…       5   123      56    225  all_…
#>  4 all          1991-Q1      Gadus … 0250-0…       6    61      29    275  all_…
#>  5 all          1991-Q1      Gadus … 0300-0…       7   379     128    361. all_…
#>  6 all          1991-Q1      Gadus … 0400-0…       8   327     122    450  all_…
#>  7 all          1991-Q1      Gadus … 0500-0…       9   610     301    588. all_…
#>  8 all          1991-Q1      Gadus … 0700-0…      10   444     238    840. all_…
#>  9 all          1991-Q1      Gadus … 1000-1…      11    84      62   1104. all_…
#> 10 all          1991-Q2      Gadus … 0100-0…       3     6       6    135  all_…
#> # … with 26 more rows, and abbreviated variable names ¹​pred_name, ²​pred_size,
#> #   ³​pred_size_class, ⁴​n_sample, ⁵​pred_l_mean
d[['PREY']]  # prey related information
#> # A tibble: 469 × 5
#>    key                                prey_name         prey_s…¹ prey_…²  prey_w
#>    <fct>                              <fct>             <fct>      <int>   <dbl>
#>  1 all_Gadus morhua_1991-Q1_0100-0149 other             9999-99…       0 349.   
#>  2 all_Gadus morhua_1991-Q1_0150-0199 Ammodytidae       0070-00…       2   9.07 
#>  3 all_Gadus morhua_1991-Q1_0150-0199 Ammodytidae       0150-01…       4  29.4  
#>  4 all_Gadus morhua_1991-Q1_0150-0199 other             9999-99…       0 378.   
#>  5 all_Gadus morhua_1991-Q1_0150-0199 Sprattus sprattus 0050-00…       1   0.170
#>  6 all_Gadus morhua_1991-Q1_0150-0199 Sprattus sprattus 0070-00…       2   1.17 
#>  7 all_Gadus morhua_1991-Q1_0200-0249 Ammodytidae       0050-00…       1  94.8  
#>  8 all_Gadus morhua_1991-Q1_0200-0249 Ammodytidae       0100-01…       3   3.80 
#>  9 all_Gadus morhua_1991-Q1_0200-0249 other             9999-99…       0 829.   
#> 10 all_Gadus morhua_1991-Q1_0200-0249 Sprattus sprattus 0070-00…       2  29.3  
#> # … with 459 more rows, and abbreviated variable names ¹​prey_size,
#> #   ²​prey_size_class
…
rm(d1,d2)

It is also possible to transform STOMdiet object into a plain
data.frame, modify data and convert back again.

# convert into a data frame
df<-as.data.frame(d)
df
#> # A tibble: 469 × 13
#>    stratum…¹ strat…² pred_…³ pred_…⁴ pred_…⁵ n_tot n_sam…⁶ pred_…⁷ key   prey_…⁸
#>    <fct>     <fct>   <fct>   <fct>     <int> <int>   <int>   <dbl> <fct> <fct>  
#>  1 all       1991-Q1 Gadus … 0100-0…       3    42      18     135 all_… other  
#>  2 all       1991-Q1 Gadus … 0150-0…       4   117      51     175 all_… Ammody…
#>  3 all       1991-Q1 Gadus … 0150-0…       4   117      51     175 all_… Ammody…
#>  4 all       1991-Q1 Gadus … 0150-0…       4   117      51     175 all_… other  
#>  5 all       1991-Q1 Gadus … 0150-0…       4   117      51     175 all_… Spratt…
#>  6 all       1991-Q1 Gadus … 0150-0…       4   117      51     175 all_… Spratt…
#>  7 all       1991-Q1 Gadus … 0200-0…       5   123      56     225 all_… Ammody…
#>  8 all       1991-Q1 Gadus … 0200-0…       5   123      56     225 all_… Ammody…
#>  9 all       1991-Q1 Gadus … 0200-0…       5   123      56     225 all_… other  
#> 10 all       1991-Q1 Gadus … 0200-0…       5   123      56     225 all_… Spratt…
#> # … with 459 more rows, 3 more variables: prey_size <fct>,
#> #   prey_size_class <int>, prey_w <dbl>, and abbreviated variable names
#> #   ¹​stratum_area, ²​stratum_time, ³​pred_name, ⁴​pred_size, ⁵​pred_size_class,
#> #   ⁶​n_sample, ⁷​pred_l_mean, ⁸​prey_name
…
