Example 05:Create data for model • FishStomachs
…
The options are mainly how to handle missing values (“holes”) for
prey sizes. If for example, there are information for prey herring 5-7
cm and 10-15 cm (but no 7-10 cm), the option insert_mid_value=TRUE will
insert a low weight proportion “mid_value” for the herring size 7-10 cm.
The option “insert_tails” is for adding low weight proportions with a
size smaller (and higher) than the observed size range.

The function for converting data (“model_output”) requires two input
files; one for specifying length classes and one file for internal model
dependent (SMS) numbering and naming of species. Data and call are shown
below.

read_csv(system.file("extdata","length_classes.csv",package = "FishStomachs"),col_types=cols())
#> # A tibble: 2,136 × 7
#>    Species  year quarter    l1    l2    no group    
#>    <chr>   <dbl>   <dbl> <dbl> <dbl> <dbl> <chr>    
#>  1 ALL      1981       1    50    69     1 0050-0069
#>  2 ALL      1981       1    70    99     2 0070-0099
#>  3 ALL      1981       1   100   149     3 0100-0149
#>  4 ALL      1981       1   150   199     4 0150-0199
#>  5 ALL      1981       1   200   249     5 0200-0249
#>  6 ALL      1981       1   250   299     6 0250-0299
#>  7 ALL      1981       1   300   399     7 0300-0399
#>  8 ALL      1981       1   400   499     8 0400-0499
#>  9 ALL      1981       1   500   699     9 0500-0699
#> 10 ALL      1981       1   700   999    10 0700-0999
#> # … with 2,126 more rows
…
#>  2      1 HKE   Merlucciu… Merluc… Hake  TRUE    TRUE    FALSE    8.79e9       1
#>  3      2 COD   Gadus mor… Gadus … Cod   TRUE    FALSE   TRUE     8.79e9       0
#>  4      3 WHG   Merlangiu… Merlan… Whit… TRUE    FALSE   TRUE     8.79e9       0
#>  5      4 HAD   Melanogra… Melano… Hadd… TRUE    FALSE   TRUE     8.79e9       0
#>  6      5 POK   Pollachiu… Pollac… Sait… TRUE    FALSE   FALSE    8.79e9       0
#>  7      6 MAC   Scomber s… Scombe… Mack… TRUE    FALSE   FALSE    8.85e9       0
#>  8      7 HER   Clupea ha… Clupea… Herr… FALSE   FALSE   TRUE     8.75e9       0
#>  9      8 SAN   Ammodytid… Ammody… Sand… FALSE   FALSE   TRUE     8.85e9       0
#> 10      9 NOP   Trisopter… Trisop… Nor.… FALSE   FALSE   TRUE     8.79e9       0
#> 11     10 SPR   Sprattus … Spratt… Sprat FALSE   FALSE   TRUE     8.75e9       0
#> # … with 3 more variables: last_age <dbl>, lw_a <dbl>, lw_b <dbl>, and
#> #   abbreviated variable names ¹​SMS_species, ²​predator_sp, ³​other_predator_sp,
#> #   ⁴​first_age
as.data.frame(d)
#> # A tibble: 469 × 13
#>    stratum…¹ strat…² pred_…³ pred_…⁴ pred_…⁵ n_tot n_sam…⁶ pred_…⁷ key   prey_…⁸
#>    <fct>     <fct>   <fct>   <fct>     <int> <int>   <int>   <dbl> <fct> <fct>  
#>  1 all       1991-Q1 Gadus … 0100-0…       3    42      18     135 all_… other  
#>  2 all       1991-Q1 Gadus … 0150-0…       4   117      51     175 all_… Ammody…
#>  3 all       1991-Q1 Gadus … 0150-0…       4   117      51     175 all_… Ammody…
#>  4 all       1991-Q1 Gadus … 0150-0…       4   117      51     175 all_… other  
#>  5 all       1991-Q1 Gadus … 0150-0…       4   117      51     175 all_… Spratt…
#>  6 all       1991-Q1 Gadus … 0150-0…       4   117      51     175 all_… Spratt…
#>  7 all       1991-Q1 Gadus … 0200-0…       5   123      56     225 all_… Ammody…
#>  8 all       1991-Q1 Gadus … 0200-0…       5   123      56     225 all_… Ammody…
#>  9 all       1991-Q1 Gadus … 0200-0…       5   123      56     225 all_… other  
#> 10 all       1991-Q1 Gadus … 0200-0…       5   123      56     225 all_… Spratt…
#> # … with 459 more rows, 3 more variables: prey_size <fct>,
#> #   prey_size_class <int>, prey_w <dbl>, and abbreviated variable names
#> #   ¹​stratum_area, ²​stratum_time, ³​pred_name, ⁴​pred_size, ⁵​pred_size_class,
#> #   ⁶​n_sample, ⁷​pred_l_mean, ⁸​prey_name
# create data for the SMS model
SMS<-model_output(d, length_classes_file=system.file("extdata","length_classes.csv",package = "FishStomachs"),
                  sp_info_file=system.file("extdata","species_info.csv",package = "FishStomachs"),
                  intoSMSformat=FALSE) 
 
SMS
#> # A tibble: 471 × 16
#>    area   year quarter predator    pred_…¹ pred_…² pred_…³ pred_…⁴ sampl…⁵ prey 
#>    <chr> <int>   <int> <chr>         <int> <chr>     <int>   <dbl>   <int> <chr>
#>  1 all    1991       1 Gadus morh…       2 0100-0…       3     135      42 other
#>  2 all    1991       1 Gadus morh…       2 0150-0…       4     175     117 other
#>  3 all    1991       1 Gadus morh…       2 0150-0…       4     175     117 Ammo…
#>  4 all    1991       1 Gadus morh…       2 0150-0…       4     175     117 Ammo…
#>  5 all    1991       1 Gadus morh…       2 0150-0…       4     175     117 Spra…
#>  6 all    1991       1 Gadus morh…       2 0150-0…       4     175     117 Spra…
#>  7 all    1991       1 Gadus morh…       2 0200-0…       5     225     123 other
#>  8 all    1991       1 Gadus morh…       2 0200-0…       5     225     123 Ammo…
#>  9 all    1991       1 Gadus morh…       2 0200-0…       5     225     123 Ammo…
#> 10 all    1991       1 Gadus morh…       2 0200-0…       5     225     123 Spra…
#> # … with 461 more rows, 6 more variables: prey_id_number <int>,
#> #   prey_size <chr>, prey_size_class <int>, prey_l_mean <dbl>, prey_w <dbl>,
#> #   type <chr>, and abbreviated variable names ¹​pred_id_number, ²​pred_size,
#> #   ³​pred_size_class, ⁴​pred_l_mean, ⁵​sampling_effort
…
